[
  {
    "town":"г.Одесса",
    "address":"проспект Шевченка, 6/2, оф.59",
    "time":"7:30 до 20:00"
  },
  {
    "town":"",
    "address":"ул. Старопортофранковская 9а",
    "time":"с 9:00 до 22:00"
  },
  {
    "town":"",
    "address":"ул. Новосельского 4г",
    "time":"Не работаем"
  }
]