{
  "activities": {
    "description": "Адвокат судебных и не только дел. Стаж 13 лет практической работы.",
    "tags": [
      "Адвокат",
      "Консультант",
      "Барбер",
      "Воспитатель",
      "РВТ"
    ]
  },
  "education": "Национальный университет «Одесская юридическая академия»",
  "languages": [
    "Русский"
  ],
  "age": 32,
  "certificates": [
    "dipl1.jpg",
    "dipl1.jpg",
    "dipl1.jpg"
  ]
}